2017-04-20 17:31:29 - root - INFO - main - input_file - Input file read.
2017-04-20 17:31:29 - root - INFO - main - <module> - Script completed.
2017-04-21 18:17:59 - root - INFO - main - input_file - Input file read.
2017-04-21 18:17:59 - root - INFO - main - <module> - Script completed.
